1,4.9103e+05
2,4.9103e+05
3,4.9103e+05
4,4.9103e+05
5,4.9103e+05
6,4.9103e+05
7,4.9103e+05
8,4.9103e+05
9,4.9103e+05
10,4.9103e+05
11,4.9103e+05
12,4.9103e+05
13,4.9103e+05
14,4.9103e+05
15,4.9103e+05
16,4.9103e+05
17,4.9103e+05
18,4.9103e+05
19,4.9103e+05
20,4.9103e+05
21,4.9103e+05
22,4.9103e+05
23,4.9103e+05
24,4.9103e+05
25,4.9103e+05
26,4.9103e+05
27,4.9103e+05
28,4.9103e+05
29,4.9103e+05
30,4.9103e+05
31,4.9103e+05
32,4.9103e+05
33,5.0081e+05
34,5.0082e+05
35,5.0082e+05
36,5.0082e+05
37,5.1059e+05
38,5.1059e+05
39,5.1059e+05
40,5.1059e+05
41,5.1059e+05
42,5.1059e+05
43,5.1059e+05
44,5.1059e+05
45,5.1059e+05
46,5.1059e+05
47,5.1059e+05
48,5.1059e+05
49,5.1059e+05
50,5.1059e+05
51,5.1059e+05
52,5.1059e+05
53,5.1059e+05
54,5.1059e+05
55,5.1059e+05
56,5.1059e+05
57,5.1059e+05
58,5.1059e+05
59,5.1059e+05
60,5.1059e+05
61,5.1059e+05
62,5.1059e+05
63,5.1059e+05
64,5.0083e+05
65,5.0083e+05
66,5.0083e+05
67,5.0083e+05
68,5.0083e+05
69,5.0083e+05
70,5.0083e+05
71,5.0083e+05
72,5.0083e+05
73,5.0083e+05
74,5.0083e+05
75,5.0083e+05
76,5.0083e+05
77,5.0083e+05
78,5.0083e+05
79,5.0083e+05
80,5.0083e+05
81,5.0083e+05
82,5.0083e+05
83,5.0083e+05
84,5.0083e+05
85,5.0083e+05
86,5.0083e+05
87,5.0083e+05
88,5.0083e+05
89,5.0083e+05
90,5.0083e+05
91,5.0083e+05
92,5.0083e+05
93,5.0083e+05
94,5.0083e+05
95,5.0083e+05
96,5.0083e+05
97,5.0083e+05
98,5.0083e+05
99,5.0083e+05
100,5.0083e+05
101,5.0083e+05
102,5.0083e+05
103,5.0083e+05
104,5.0083e+05
105,5.0083e+05
106,5.0083e+05
107,5.0083e+05
108,5.0083e+05
109,5.0083e+05
110,5.0083e+05
111,5.0083e+05
112,5.0083e+05
113,5.0083e+05
114,5.0083e+05
115,5.1059e+05
116,5.1059e+05
117,5.1059e+05
118,5.1059e+05
119,5.1059e+05
120,5.1059e+05
121,5.1059e+05
122,5.1059e+05
123,5.1059e+05
124,5.1059e+05
125,5.1059e+05
126,5.1059e+05
127,5.1059e+05
128,5.1059e+05
129,5.1059e+05
130,5.1059e+05
131,5.1059e+05
132,5.1059e+05
133,5.1059e+05
134,5.1059e+05
135,5.1059e+05
136,5.1059e+05
137,5.1059e+05
138,5.1059e+05
139,5.1059e+05
140,5.1059e+05
141,5.1059e+05
142,5.1059e+05
143,5.1059e+05
144,5.1059e+05
145,5.1059e+05
146,5.1059e+05
147,5.1059e+05
148,5.0085e+05
149,5.0085e+05
150,5.0085e+05
151,5.0085e+05
152,5.0085e+05
153,5.0085e+05
154,5.0085e+05
155,5.0085e+05
156,5.0085e+05
157,5.0085e+05
158,5.0085e+05
159,5.0085e+05
160,5.0085e+05
161,5.0085e+05
162,5.0085e+05
163,5.0085e+05
164,5.0085e+05
165,5.0085e+05
166,5.0085e+05
167,5.0085e+05
168,5.0085e+05
169,5.0085e+05
170,5.0078e+05
171,5.0078e+05
172,5.0078e+05
173,5.0078e+05
174,5.0078e+05
175,5.0077e+05
176,5.0077e+05
177,5.0077e+05
178,5.0077e+05
179,4.9098e+05
180,4.9098e+05
181,4.9098e+05
182,4.9098e+05
183,4.9098e+05
184,4.9098e+05
185,4.9098e+05
186,4.9098e+05
187,4.8117e+05
188,4.8117e+05
189,4.8117e+05
190,4.8116e+05
191,4.8116e+05
192,4.8116e+05
193,4.8116e+05
194,4.8116e+05
195,4.8114e+05
196,4.8114e+05
197,4.7134e+05
198,4.7134e+05
199,4.7136e+05
200,4.7134e+05
201,4.7134e+05
202,4.7134e+05
203,4.7134e+05
204,4.7134e+05
205,4.7134e+05
206,4.7134e+05
207,4.7134e+05
208,4.7134e+05
209,4.7134e+05
210,4.7133e+05
211,4.7133e+05
212,4.7133e+05
213,4.7133e+05
214,4.7133e+05
215,4.7133e+05
216,4.7133e+05
217,4.7133e+05
218,4.7133e+05
219,4.7133e+05
220,4.7133e+05
221,4.7133e+05
222,4.7133e+05
223,4.7133e+05
224,4.7133e+05
225,4.7133e+05
226,4.7133e+05
227,4.7133e+05
228,4.7133e+05
229,4.7133e+05
230,4.7133e+05
231,4.7133e+05
232,4.7133e+05
233,4.7133e+05
234,4.7133e+05
235,4.7133e+05
236,4.7133e+05
237,4.7133e+05
238,4.7133e+05
239,4.7133e+05
240,4.7133e+05
241,4.7133e+05
242,4.7133e+05
243,4.7133e+05
244,4.7141e+05
245,4.8113e+05
246,4.8113e+05
247,4.8121e+05
248,4.8113e+05
249,4.8122e+05
250,4.9095e+05
251,4.9095e+05
252,4.9101e+05
253,4.8122e+05
254,4.9101e+05
255,4.9101e+05
256,4.9101e+05
257,4.9101e+05
258,4.9101e+05
259,4.9101e+05
260,4.9101e+05
261,4.9101e+05
262,4.9101e+05
263,4.9101e+05
264,4.9101e+05
265,4.9101e+05
266,5.0079e+05
267,5.0079e+05
268,5.0079e+05
269,5.0079e+05
270,5.0079e+05
271,5.0079e+05
272,5.0079e+05
273,5.0079e+05
274,5.0079e+05
275,5.0079e+05
276,5.0079e+05
277,5.0079e+05
278,5.0079e+05
279,5.0079e+05
280,5.0079e+05
281,5.0079e+05
282,5.0079e+05
283,5.0079e+05
284,5.0079e+05
285,5.0079e+05
286,5.0079e+05
287,5.0079e+05
288,5.0081e+05
289,5.0081e+05
290,5.0081e+05
291,5.0081e+05
292,5.0081e+05
293,5.0081e+05
294,5.0081e+05
295,5.0081e+05
296,5.0081e+05
297,5.0081e+05
298,5.0081e+05
299,5.0081e+05
300,5.0081e+05
301,5.0081e+05
302,5.0081e+05
303,5.0081e+05
304,5.0081e+05
305,5.0081e+05
306,5.0081e+05
307,5.0081e+05
308,5.0081e+05
309,5.0081e+05
310,5.0081e+05
311,5.0081e+05
312,5.0081e+05
313,5.0081e+05
314,5.0081e+05
315,5.0081e+05
316,5.0081e+05
317,5.0081e+05
318,5.0081e+05
319,5.0081e+05
320,5.008e+05
321,5.008e+05
322,5.008e+05
323,5.008e+05
324,5.008e+05
325,5.0079e+05
326,4.9104e+05
327,4.9102e+05
328,4.8123e+05
329,4.8123e+05
330,4.8123e+05
331,4.8123e+05
332,4.8123e+05
333,4.8123e+05
334,4.8123e+05
335,4.8123e+05
336,4.8123e+05
337,4.8123e+05
338,4.8123e+05
339,4.8123e+05
340,4.8123e+05
341,4.8123e+05
342,4.8123e+05
343,4.8123e+05
344,4.8123e+05
345,4.8123e+05
346,4.8123e+05
347,4.8123e+05
348,4.8123e+05
349,4.8123e+05
350,4.8123e+05
351,4.8123e+05
352,4.8123e+05
353,4.8123e+05
354,4.8123e+05
355,4.8123e+05
356,4.8123e+05
357,4.8123e+05
358,4.8123e+05
359,4.8123e+05
360,4.8123e+05
361,4.8123e+05
362,4.8123e+05
363,4.8123e+05
364,4.8111e+05
365,4.8111e+05
366,4.7129e+05
367,4.7129e+05
368,4.7129e+05
369,4.7129e+05
370,4.7129e+05
371,4.7129e+05
372,4.7128e+05
373,4.7128e+05
374,4.7128e+05
375,4.7128e+05
376,4.7128e+05
377,4.7128e+05
378,4.7128e+05
379,4.7128e+05
380,4.7129e+05
381,4.7128e+05
382,4.7128e+05
383,4.7128e+05
384,4.7128e+05
385,4.6148e+05
386,4.6148e+05
387,4.6148e+05
388,4.6148e+05
389,4.6148e+05
390,4.6148e+05
391,4.6148e+05
392,4.6148e+05
393,4.6147e+05
394,4.6148e+05
395,4.5168e+05
396,4.5167e+05
397,4.5167e+05
398,4.5168e+05
399,4.5153e+05
400,4.5152e+05
401,4.4164e+05
402,4.3174e+05
403,4.2184e+05
404,4.2184e+05
405,4.1194e+05
406,4.1194e+05
407,4.0204e+05
408,4.0204e+05
409,4.0185e+05
410,3.9195e+05
411,3.7234e+05
412,3.526e+05
413,3.526e+05
414,3.6241e+05
415,3.526e+05
416,3.526e+05
417,3.4277e+05
418,3.3286e+05
419,3.4277e+05
420,3.4278e+05
421,3.4286e+05
422,3.4267e+05
423,3.5258e+05
424,3.4277e+05
425,3.4281e+05
426,3.3296e+05
427,3.3304e+05
428,3.2314e+05
429,3.2308e+05
430,3.2305e+05
431,3.3287e+05
432,3.2304e+05
433,3.2302e+05
434,3.0326e+05
435,3.1312e+05
436,3.0313e+05
437,2.935e+05
438,2.8349e+05
439,2.8324e+05
440,2.8322e+05
441,2.7327e+05
442,2.5375e+05
443,2.5374e+05
444,2.6354e+05
445,2.635e+05
446,2.6348e+05
447,2.638e+05
448,2.5352e+05
449,2.7316e+05
450,2.7368e+05
451,2.6381e+05
452,2.7324e+05
453,2.8312e+05
454,2.8324e+05
455,2.8359e+05
456,3.0293e+05
457,3.0295e+05
458,3.1282e+05
459,3.1307e+05
460,3.1331e+05
461,3.3261e+05
462,3.4246e+05
463,3.4253e+05
464,3.4254e+05
465,3.3315e+05
466,3.5243e+05
467,3.5251e+05
468,3.5256e+05
469,3.5259e+05
470,3.6239e+05
471,3.6246e+05
472,3.7208e+05
473,3.7211e+05
474,3.7208e+05
475,3.7206e+05
476,3.7208e+05
477,3.8195e+05
478,3.8204e+05
479,3.8202e+05
480,3.8208e+05
481,3.8213e+05
482,4.018e+05
483,4.0181e+05
484,4.1174e+05
485,4.217e+05
486,4.3155e+05
487,4.414e+05
488,4.5132e+05
489,4.6122e+05
490,4.6144e+05
491,4.7126e+05
492,4.6143e+05
493,4.8105e+05
494,4.8112e+05
495,4.8114e+05
496,4.9095e+05
497,4.9095e+05
498,4.9095e+05
499,4.9095e+05
500,4.8115e+05
501,4.9095e+05
502,4.8115e+05
503,4.9095e+05
504,4.9095e+05
505,4.8115e+05
506,4.9095e+05
507,4.9095e+05
508,4.9095e+05
509,4.9095e+05
510,4.8115e+05
511,4.9095e+05
512,4.9096e+05
513,4.8115e+05
514,4.9095e+05
515,4.8115e+05
516,4.9096e+05
517,4.9096e+05
518,4.9096e+05
519,4.9096e+05
520,4.8115e+05
521,4.9096e+05
522,4.9096e+05
523,4.9096e+05
524,4.9096e+05
525,4.9097e+05
526,4.9097e+05
527,4.9097e+05
528,4.9097e+05
529,4.9097e+05
530,4.9098e+05
531,4.9098e+05
532,4.9099e+05
533,4.9099e+05
534,4.9099e+05
535,4.9099e+05
536,4.9099e+05
537,4.9099e+05
538,4.9099e+05
539,4.9099e+05
540,4.9099e+05
541,4.9099e+05
542,4.9099e+05
543,4.9095e+05
544,4.9095e+05
545,4.9095e+05
546,4.9095e+05
547,4.9095e+05
548,4.9095e+05
549,4.9095e+05
550,4.9095e+05
551,4.9095e+05
552,4.9095e+05
553,4.9095e+05
554,4.9095e+05
555,4.9095e+05
556,4.9095e+05
557,4.9095e+05
558,4.9095e+05
559,4.9095e+05
560,4.9095e+05
561,4.9095e+05
562,4.9095e+05
563,4.9095e+05
564,4.9095e+05
565,4.9095e+05
566,4.9095e+05
567,4.9095e+05
568,4.9095e+05
569,4.9095e+05
570,4.9095e+05
571,4.9095e+05
572,4.9095e+05
573,4.9095e+05
574,4.9095e+05
575,4.9095e+05
576,4.9095e+05
577,4.9095e+05
578,4.9095e+05
579,4.9095e+05
580,4.9095e+05
581,4.9095e+05
582,4.9095e+05
583,4.9095e+05
584,4.9095e+05
585,4.9095e+05
586,4.9095e+05
587,4.9095e+05
588,4.9095e+05
589,4.9095e+05
590,4.8117e+05
591,4.8117e+05
592,4.8117e+05
593,4.812e+05
594,4.9098e+05
