1,11,11
1,11,12
1,11,13
1,11,14
1,11,15
1,11,16
1,11,17
1,11,18
1,11,19
1,11,20
1,11,20
1,12,20
1,13,20
1,14,20
1,15,20
1,16,20
1,17,20
1,18,20
1,19,20
1,20,20
1,21,20
1,22,20
1,23,20
1,24,20
1,25,20
1,26,20
1,27,20
1,28,20
1,29,20
1,30,20
1,30,11
1,30,12
1,30,13
1,30,14
1,30,15
1,30,16
1,30,17
1,30,18
1,30,19
1,30,20
1,11,11
1,12,11
1,13,11
1,14,11
1,15,11
1,16,11
1,17,11
1,18,11
1,19,11
1,20,11
1,21,11
1,22,11
1,23,11
1,24,11
1,25,11
1,26,11
1,27,11
1,28,11
1,29,11
1,30,11
