60,61
64,67
66,69
72,77
443,444
106,107
128,131
137,507
139,510
140,513
142,512
514,517
141,516
143,146
144,147
145,148
149,523
150,524
151,528
152,533
154,538
155,535
156,536
157,158
160,543
161,544
162,545
163,164
165,166
167,548
168,549
169,550
170,551
171,172
174,554
176,555
177,178
179,561
180,560
181,185
182,186
183,564
184,188
190,566
191,192
197,198
203,204
206,207
212,215
213,218
358,359
357,363
286,382
380,383
381,384
236,386
237,389
238,390
239,391
396,397
340,416
52,53
86,87
452,453
468,469
473,493
484,497
485,498
490,505
